Type,Name,HFR,xPos,yPos,AvgBright,MaxBright,Background,Ra,Dec
Target,HD 189733 b,2.6035068712769851,1992,1446,1640.3703703703704,39440,1917.0601851851852,300.18333333333328,22.709722222222222
Var,SW Vul,2.8626145609282911,2972,276,26.14,2012,1905.445,300.02171,22.93517
Var,DQ Vul,2.372369130017419,3006,1040,28.180555555555557,2048,1906.9027777777778,300.01254,22.78103
Var,HQ Vul,3.8351043206620834,157,1690,49.393939393939391,2104,1905.7454545454545,300.55808,22.64067
Var,HS Vul,4.8562747102766775,38,1036,292.55614973262033,3736,1907.6056149732619,300.60879,22.74469
Var,V0418 Vul,2.2634588200349683,3244,2128,81.4320987654321,2320,1907.8148148148148,299.92455,22.56378
Var,V0433 Vul,2.0960858836409377,2281,1636,74.944444444444443,2380,1910.2916666666667,300.13558,22.67094
Var,V0434 Vul,2.2182197324351751,2290,1322,296.16,3952,1914.35,300.13841,22.72818
Var,V0571 Vul,2.5352168197052469,3690,1137,55.955555555555556,2156,1905.5666666666666,299.87388,22.75364
Var,NSVS J2000572+222627,2.2346110469917773,1962,2585,45.722222222222221,2112,1907.6875,300.23546,22.44247
Var,ASAS J195924+2257.0,2.6806994266616471,3831,260,33,2008,1905.7571428571428,299.8488,22.95094
Var,ASAS J200214+2251.2,4.0497202415024951,365,964,228.92222222222222,3316,1908.6888888888889,300.55883,22.85442
Var,V0498 Vul,2.3606146972376347,3094,1390,21.888888888888889,2028,1906.8395061728395,299.96371,22.70897
Var,GSC2.3 N2OD003319,3.9171327983939328,632,302,30.714285714285715,2064,1906.110119047619,300.6151,22.96283
Var,ASAS J200158+2235.1,2.8584330407474572,718,1919,42.945454545454545,2080,1907.55,300.49177,22.58388
Var,ASASSN-V J200144.73+224337.0,2.77273733322223,919,1260,40.9,2096,1909.2777777777778,300.43637,22.72696
Var,ZALD 3,1.999768654406973,2804,1806,23.916666666666668,2016,1908.8125,300.04888,22.63666
Var,WISE J200013.9+224634,2.1603956383491441,2782,1198,57.069444444444443,2208,1908.7569444444443,300.05827,22.77633
Var,PS1-3PI J200112.72+223014.9,2.1595658805998421,1566,2385,25.571428571428573,2020,1908.0982142857142,300.30304,22.50413
Var,PS1-3PI J200215.00+222800.7,3.795154057764778,392,2548,134.45673076923077,2532,1906.6802884615386,300.56254,22.46688
Var,HD 345455,2.2026948601978287,2620,669,86.037037037037038,2456,1909.1728395061727,300.07654,22.85947
Var,ASASSN-V J200002.97+223550.8,2.3481845426903778,2858,1954,111.73333333333333,2592,1910.161111111111,300.01238,22.59745
Var,ASASSN-V J200148.56+222640.0,2.934984949999357,935,2618,88.900826446280988,2328,1907.2355371900826,300.45234,22.44443
Var,ASASSN-V J200151.99+222957.1,3.0965610540971329,802,2314,236.89940828402368,3272,1909.1272189349113,300.46664,22.49921
Var,CzeV712,2.1595658805998421,1566,2385,25.571428571428573,2020,1908.0982142857142,300.29199,22.522
Var,ASASSN-V J195906.09+223105.0,3.0759369962585215,4064,2346,28.90909090909091,2028,1904.5743801652893,299.77538,22.51806
Var,ASASSN-V J195907.51+224754.1,2.9696327250122403,3988,909,68.314049586776861,2236,1906.2107438016528,299.78128,22.79837
Var,ASASSN-V J195912.09+225642.9,2.6806994266616471,3831,260,33,2008,1905.7571428571428,299.80039,22.94524
Var,ASASSN-V J195924.56+224159.8,2.6283571525702389,3618,1445,95.481818181818184,2416,1907.3772727272728,299.85233,22.69993
Var,ASASSN-V J195937.39+223413.4,2.4278240284995518,3434,2147,37.407407407407405,2084,1905.5925925925926,299.90578,22.5704
Var,ASASSN-V J200013.48+224830.5,2.23686927176512,2839,836,109.45679012345678,2524,1908.7469135802469,300.05618,22.80846
Var,ASASSN-V J200015.00+225538.3,2.7831482638542417,2703,190,149.7651515151515,2764,1908.746212121212,300.06249,22.9273
Var,ASASSN-V J200029.80+225830.8,2.4423476047434605,2244,84,34.382716049382715,2056,1909.0061728395062,300.12419,22.97521
Var,ASASSN-V J200100.01+225117.1,2.7062133472414516,1712,748,230.17361111111111,3472,1911.3125,300.25005,22.85476
Var,ASASSN-V J200127.36+222805.5,3.0123346641192819,1128,2642,27.309090909090909,2028,1906.2636363636364,300.364,22.46819
Var,ASASSN-V J200150.13+224903.6,3.3736313855662408,646,854,33.7,2072,1907.875,300.45889,22.81766
Var,ASASSN-V J200156.48+223411.7,3.0239833133349197,642,2256,30.145454545454545,2028,1906.2727272727273,300.48533,22.5699
Var,ASASSN-V J200221.57+223550.6,4.2306528351016048,118,2106,51.916666666666664,2136,1905.3888888888889,300.58986,22.59739
Var,ASASSN-V J200222.86+225717.3,3.9171327983939328,632,302,30.714285714285715,2064,1906.110119047619,300.59524,22.95481
Var,CzeV1382,3.0917800570177789,907,1578,19.37037037037037,2020,1907.6296296296296,300.43838,22.68639
Var,CzeV1398,3.795154057764778,392,2548,134.45673076923077,2532,1906.6802884615386,300.55683,22.46337
Var,CzeV1399,2.2346110469917773,1962,2585,45.722222222222221,2112,1907.6875,300.2164,22.44457
Var,CzeV1495,2.6853443849052732,1258,1422,777.65714285714284,10220,1915.3904761904762,300.34828,22.71363
Var,ZTF J195900.04+225427.0,2.6010371076553427,3873,549,34.888888888888886,2036,1905.2345679012346,299.75017,22.90751
Var,ZTF J195904.17+225411.7,2.6010371076553427,3873,549,34.888888888888886,2036,1905.2345679012346,299.76738,22.90327
Var,ZTF J195913.05+225751.9,2.6806994266616471,3831,260,33,2008,1905.7571428571428,299.80438,22.96444
Var,ZTF J195918.40+223014.6,2.4498950824086068,3576,2475,22.962962962962962,2040,1911.8950617283951,299.82669,22.50406
Var,ZTF J195923.56+224428.2,2.5352168197052469,3690,1137,55.955555555555556,2156,1905.5666666666666,299.8482,22.74117
Var,ZTF J195925.89+224520.7,2.5352168197052469,3690,1137,55.955555555555556,2156,1905.5666666666666,299.85789,22.75577
Var,ZTF J195926.15+224023.1,2.3678766590614613,3552,1568,27.160493827160494,2028,1907.0061728395062,299.859,22.67309
Var,ZTF J195929.43+223406.8,2.4491919514456679,3460,2121,41.950617283950621,2092,1905.641975308642,299.87266,22.56856
Var,ZTF J195932.29+223120.0,2.4181868804319366,3516,2332,34.725,2048,1905.99375,299.88455,22.52223
Var,ZTF J195938.26+224259.0,2.3507678396946332,3394,1524,56.088888888888889,2220,1907.8444444444444,299.90942,22.71641
Var,ZTF J195939.66+223230.1,2.3775028606879895,3473,2243,54.518518518518519,2132,1905.5864197530864,299.91525,22.54171
Var,ZTF J195943.66+225547.7,2.47765306138777,3158,450,82.01,2320,1907.18,299.93194,22.92994
Var,ZTF J195948.38+224354.7,2.1233874993169879,3096,1325,53.236111111111114,2168,1909.0763888888889,299.95159,22.73188
Var,ZTF J195953.11+222904.7,3.029980180541251,3182,2532,433.65934065934067,5700,1909.1263736263736,299.97133,22.48465
Var,ZTF J195954.47+225429.3,2.47765306138777,3158,450,82.01,2320,1907.18,299.97697,22.90815
Var,ZTF J195954.89+225538.5,2.8626145609282911,2972,276,26.14,2012,1905.445,299.97875,22.92738
Var,ZTF J195956.05+224553.3,2.372369130017419,3006,1040,28.180555555555557,2048,1906.9027777777778,299.98357,22.76483
Var,ZTF J195956.32+223056.0,2.2406485713897459,3010,2406,50,2128,1907.8402777777778,299.98467,22.51558
Var,ZTF J195956.53+225332.7,2.324164111525763,2998,526,31.319444444444443,2024,1907.3402777777778,299.98556,22.89244
Var,ZTF J195957.68+225723.7,2.7519720064569011,2968,139,65.036363636363632,2172,1905.8727272727272,299.99036,22.95661
Var,ZTF J195959.12+225226.6,2.324164111525763,2998,526,31.319444444444443,2024,1907.3402777777778,299.99634,22.87406
Var,ZTF J200000.15+223103.1,2.2406485713897459,3010,2406,50,2128,1907.8402777777778,300.00066,22.51754
Var,ZTF J200001.13+222824.6,2.4321637775907181,3008,2703,55.111111111111114,2156,1906.29012345679,300.00474,22.4735
Var,ZTF J200003.13+224250.4,2.2555765322743673,2876,1296,20.75,2040,1906.953125,300.01308,22.71402
Var,ZTF J200003.53+223447.0,2.3498491047682766,2841,1974,42.271604938271608,2112,1908.462962962963,300.01471,22.57973
Var,ZTF J200003.60+224031.2,2.0977710589704297,2760,1572,31.083333333333332,2096,1908.6527777777778,300.01502,22.67536
Var,ZTF J200004.75+225511.8,2.3873017212833085,2741,414,65.4,2284,1908.7111111111112,300.01983,22.91997
Var,ZTF J200007.63+225416.9,2.3873017212833085,2741,414,65.4,2284,1908.7111111111112,300.03181,22.9047
Var,ZTF J200009.20+223949.8,2.0977710589704297,2760,1572,31.083333333333332,2096,1908.6527777777778,300.03835,22.66385
Var,ZTF J200011.46+225821.4,2.7831482638542417,2703,190,149.7651515151515,2764,1908.746212121212,300.04778,22.97262
Var,ZTF J200012.44+222949.7,2.4825883616685118,2674,2247,25.432098765432098,2028,1906.4814814814815,300.05187,22.49714
Var,ZTF J200014.59+224850.7,2.23686927176512,2839,836,109.45679012345678,2524,1908.7469135802469,300.06083,22.81411
Var,ZTF J200027.41+224517.3,2.1545513000127658,2250,1187,123.07407407407408,2620,1910.641975308642,300.11422,22.75481
Var,ZTF J200030.12+222920.0,2.3261081595057327,2430,2603,34.148148148148145,2080,1907.0308641975309,300.12553,22.48891
Var,ZTF J200037.31+225858.2,2.4423476047434605,2244,84,34.382716049382715,2056,1909.0061728395062,300.15547,22.98285
Var,ZTF J200042.26+222901.5,2.2353843120199737,2149,2503,42.02469135802469,2172,1907.6851851851852,300.17609,22.48376
Var,ZTF J200043.46+222833.5,2.2353843120199737,2149,2503,42.02469135802469,2172,1907.6851851851852,300.18112,22.476
Var,ZTF J200043.89+224437.5,2.1545513000127658,2250,1187,123.07407407407408,2620,1910.641975308642,300.1829,22.74376
Var,ZTF J200048.26+223855.1,2.1963713687207447,1968,1596,22.375,2036,1908.5,300.20109,22.64864
Var,ZTF J200048.43+223828.4,2.1963713687207447,1968,1596,22.375,2036,1908.5,300.20182,22.64125
Var,ZTF J200048.46+223938.2,2.1963713687207447,1968,1596,22.375,2036,1908.5,300.20194,22.66062
Var,ZTF J200050.90+223507.2,1.9533900863389995,2044,2000,95.453125,2420,1910.78125,300.21211,22.58534
Var,ZTF J200051.42+224209.1,2.1912336149646281,1886,1408,224.2,3556,1913.555,300.21426,22.70253
Var,ZTF J200053.17+224205.4,2.1912336149646281,1886,1408,224.2,3556,1913.555,300.22158,22.70152
Var,ZTF J200054.16+223413.3,2.4155532352276365,1946,2192,139.32,2852,1910.355,300.22569,22.57037
Var,ZTF J200054.60+224920.3,2.3441699834631984,1782,836,140.46666666666667,2628,1910.3444444444444,300.22753,22.82232
Var,ZTF J200055.53+223112.6,2.1676981954511918,1811,2302,48.388888888888886,2164,1908.2222222222222,300.23141,22.52019
Var,ZTF J200058.09+223525.0,1.9599609511917868,1698,1973,29.5,2044,1909.9375,300.24205,22.59029
Var,ZTF J200058.32+224723.1,2.162169878003616,1928,954,85.827160493827165,2396,1911.20987654321,300.24301,22.78977
Var,ZTF J200059.07+225745.1,2.575255530376372,1818,28,24,2016,1908.8166666666666,300.24613,22.96255
Var,ZTF J200059.66+224324.7,2.0887448688338739,1781,1330,201.69135802469137,3188,1913.4753086419753,300.24859,22.72353
Var,ZTF J200102.59+224147.4,2.1389855413067314,1694,1412,35.236111111111114,2072,1910.5763888888889,300.2608,22.6965
Var,ZTF J200102.68+225834.0,2.575255530376372,1818,28,24,2016,1908.8166666666666,300.26118,22.97612
Var,ZTF J200103.47+224118.3,2.1389855413067314,1694,1412,35.236111111111114,2072,1910.5763888888889,300.26447,22.68843
Var,ZTF J200104.96+224814.0,2.2596438291682519,1534,966,64.7,2224,1912.09375,300.27069,22.80391
Var,ZTF J200105.80+224324.8,2.1389855413067314,1694,1412,35.236111111111114,2072,1910.5763888888889,300.27419,22.72356
Var,ZTF J200106.64+223257.2,2.0385029116856739,1746,2184,21.25,2036,1909.5714285714287,300.27767,22.54923
Var,ZTF J200108.59+224659.4,2.2596438291682519,1534,966,64.7,2224,1912.09375,300.28583,22.78318
Var,ZTF J200110.78+224030.1,2.0677097121482761,1574,1642,25.25,2024,1909.859375,300.29495,22.67503
Var,ZTF J200111.41+225040.8,2.2928592763211837,1668,613,52.777777777777779,2144,1910.3263888888889,300.29756,22.84469
Var,ZTF J200113.31+224020.4,2.0677097121482761,1574,1642,25.25,2024,1909.859375,300.30546,22.67234
Var,ZTF J200115.96+224355.3,2.1139143453621378,1480,1278,27.75,2024,1909.3515625,300.31652,22.73205
Var,ZTF J200117.32+222736.2,2.3633419369303188,1466,2818,61,2132,1908.0111111111112,300.3222,22.46007
Var,ZTF J200117.45+225410.5,2.8522007306657087,1415,285,30.454545454545453,2028,1907.3636363636363,300.32274,22.90293
Var,ZTF J200123.91+222749.7,3.0123346641192819,1128,2642,27.309090909090909,2028,1906.2636363636364,300.34965,22.46381
Var,ZTF J200124.58+222846.0,2.5249590997387812,1196,2524,30.1875,2056,1907.01875,300.35243,22.47947
Var,ZTF J200127.22+225419.0,2.912558464454007,1060,522,39.87,2080,1908.645,300.36342,22.90529
Var,ZTF J200128.55+224016.9,2.1111808482363923,1329,1739,133.62962962962962,2672,1912.0308641975309,300.36899,22.67138
Var,ZTF J200130.72+223026.1,2.5249590997387812,1196,2524,30.1875,2056,1907.01875,300.37802,22.50727
Var,ZTF J200135.77+223805.1,2.4013187721111131,1128,1782,158.58181818181819,3008,1909.9954545454545,300.39906,22.63475
Var,ZTF J200139.23+225609.8,2.912558464454007,1060,522,39.87,2080,1908.645,300.4135,22.93606
Var,ZTF J200147.63+222659.6,2.934984949999357,935,2618,88.900826446280988,2328,1907.2355371900826,300.44849,22.44991
Var,ZTF J200151.62+225249.1,3.9199410826637866,626,486,129.92410714285714,2628,1907.0513392857142,300.46509,22.88032
Var,ZTF J200151.93+224545.5,2.77273733322223,919,1260,40.9,2096,1909.2777777777778,300.4664,22.76264
Var,ZTF J200152.01+223320.6,3.0239833133349197,642,2256,30.145454545454545,2028,1906.2727272727273,300.46673,22.55575
Var,ZTF J200154.44+222802.3,3.5864961330328833,568,2738,59.743589743589745,2132,1905.7243589743589,300.47686,22.46733
Var,ZTF J200154.80+225335.8,3.9199410826637866,626,486,129.92410714285714,2628,1907.0513392857142,300.47837,22.8933
Var,ZTF J200203.02+223959.6,3.7740625320987928,454,1482,61.4,2208,1909.471875,300.51261,22.66657
Var,ZTF J200204.74+225259.4,3.9199410826637866,626,486,129.92410714285714,2628,1907.0513392857142,300.51977,22.88317
Var,ZTF J200208.22+225909.8,3.9171327983939328,632,302,30.714285714285715,2064,1906.110119047619,300.53427,22.98607
Var,ZTF J200210.15+224703.8,4.0497202415024951,365,964,228.92222222222222,3316,1908.6888888888889,300.54231,22.78441
Var,ZTF J200210.95+224605.1,3.6776955813291785,337,1179,38.666666666666664,2120,1906.7636363636364,300.54565,22.76809
Var,ZTF J200211.39+222705.1,3.795154057764778,392,2548,134.45673076923077,2532,1906.6802884615386,300.54747,22.45144
Var,ZTF J200211.63+222900.7,3.795154057764778,392,2548,134.45673076923077,2532,1906.6802884615386,300.54848,22.48355
Var,ZTF J200215.11+223814.4,3.8351043206620834,157,1690,49.393939393939391,2104,1905.7454545454545,300.56299,22.63734
Var,ZTF J200217.08+222750.5,3.795154057764778,392,2548,134.45673076923077,2532,1906.6802884615386,300.5712,22.46404
Var,ZTF J200218.15+222837.4,3.795154057764778,392,2548,134.45673076923077,2532,1906.6802884615386,300.57564,22.47707
Var,ZTF J200218.30+224929.8,4.0497202415024951,365,964,228.92222222222222,3316,1908.6888888888889,300.57629,22.82497
Var,ZTF J200219.27+224203.3,3.8351043206620834,157,1690,49.393939393939391,2104,1905.7454545454545,300.58033,22.70094
Var,ZTF J200219.54+223518.3,4.2306528351016048,118,2106,51.916666666666664,2136,1905.3888888888889,300.58145,22.58843
Var,ZTF J200220.41+224328.9,3.6776955813291785,337,1179,38.666666666666664,2120,1906.7636363636364,300.58508,22.7247
Var,ZTF J200220.90+222909.7,3.795154057764778,392,2548,134.45673076923077,2532,1906.6802884615386,300.58711,22.48605
Var,ZTF J200221.36+223851.4,3.8351043206620834,157,1690,49.393939393939391,2104,1905.7454545454545,300.58904,22.64762
Var,ZTF J200221.88+225759.5,3.9171327983939328,632,302,30.714285714285715,2064,1906.110119047619,300.5912,22.96653
Var,ZTF J200222.69+225854.1,3.9171327983939328,632,302,30.714285714285715,2064,1906.110119047619,300.59457,22.98172
Var,ZTF J200224.72+225339.4,3.9199410826637866,626,486,129.92410714285714,2628,1907.0513392857142,300.60302,22.89429
Var,ZTF J200226.56+223237.7,4.2306528351016048,118,2106,51.916666666666664,2136,1905.3888888888889,300.61067,22.54381
Var,ZTF J200226.66+223033.5,4.2306528351016048,118,2106,51.916666666666664,2136,1905.3888888888889,300.61109,22.50933
Var,ZTF J200227.07+225328.3,4.8562747102766775,38,1036,292.55614973262033,3736,1907.6056149732619,300.6128,22.89121
Var,ZTF J200227.18+224849.5,4.8562747102766775,38,1036,292.55614973262033,3736,1907.6056149732619,300.61325,22.81376
Var,ZTF J200015.12+223156.5,2.4825883616685118,2674,2247,25.432098765432098,2028,1906.4814814814815,300.06304,22.53238
Comp1,ATO J300.3222+22.7056,2.4268101078425852,1367,1465,352,4496,1913.9504132231405,300.32229415181337,22.705681453738887
Comp1,HD 189657,2.5343988482845927,2527,2808,23.814814814814813,2012,1906.5061728395062,300.08714683055996,22.4400393728
Comp1,HD 345456,2.4601513726683373,2245,672,32.691358024691361,2052,1908.5,300.13489404891,22.88003824396
Comp1,HD 345459,2.2738807043120195,1832,750,29.962962962962962,2024,1910.0648148148148,300.23729988149,22.84698109626
Comp1,TYC 2141-1124-1,2.0274681874502596,2258,1484,26.28125,2104,1909.1796875,300.13696093706,22.686612688030003
Comp1,TYC 2141-1346-1,2.1381713676814202,2206,1377,107.06172839506173,2584,1910.2716049382716,300.15913753814,22.7017710478
Comp1,TYC 2141-678-1,2.7062133472414516,1712,748,230.17361111111111,3472,1911.3125,300.28196692287,22.835813691130003
Comp2,000-BJP-946,2.2738807043120195,1832,750,29.962962962962962,2024,1910.0648148148148,300.23741666666666,22.846999999999998
Comp2,000-BJP-942,2.0977710589704297,2760,1572,31.083333333333332,2096,1908.6527777777778,300.025875,22.704777777777778
Comp2,000-BJP-945,2.7062133472414516,1712,748,230.17361111111111,3472,1911.3125,300.29437499999995,22.832805555555556
Comp2,000-BJP-948,2.162169878003616,1928,954,85.827160493827165,2396,1911.20987654321,300.20066666666662,22.80338888888889
Comp2,000-BJP-947,2.4601513726683373,2245,672,32.691358024691361,2052,1908.5,300.13491666666664,22.879944444444444
Comp2,000-BJP-943,1.899063559334337,2036,1923,28.892857142857142,2036,1909.9196428571429,300.212125,22.626694444444446
Comp2,000-BJP-949,2.1350814351485186,2538,689,62.694444444444443,2224,1909.7152777777778,300.11054166666662,22.808722222222222
Comp2,000-BJP-944,2.2596438291682519,1534,966,64.7,2224,1912.09375,300.29925,22.792972222222225
Comp2,000-BJV-365,2.8626145609282911,2972,276,26.14,2012,1905.445,299.99770833333332,22.943638888888888
Comp2,000-BJV-366,2.7519720064569011,2968,139,65.036363636363632,2172,1905.8727272727272,300.01683333333335,22.954388888888889
Comp2,000-BJV-367,2.8626145609282911,2972,276,26.14,2012,1905.445,299.97408333333334,22.946055555555557
Comp2,000-BJV-368,2.8626145609282911,2972,276,26.14,2012,1905.445,299.97770833333334,22.943666666666665
Comp2,000-BJV-369,2.3873017212833085,2741,414,65.4,2284,1908.7111111111112,300.043375,22.925138888888892
Comp2,000-BJV-370,2.7831482638542417,2703,190,149.7651515151515,2764,1908.746212121212,300.024375,22.942222222222224
Comp2,000-BJV-371,2.7519720064569011,2968,139,65.036363636363632,2172,1905.8727272727272,299.99220833333334,22.957166666666666
Comp2,000-BJV-372,2.7519720064569011,2968,139,65.036363636363632,2172,1905.8727272727272,299.98695833333335,22.962833333333332
Comp2,000-BCK-084,2.3606146972376347,3094,1390,21.888888888888889,2028,1906.8395061728395,299.97654166666666,22.708444444444442
Comp2,000-BJV-373,2.7831482638542417,2703,190,149.7651515151515,2764,1908.746212121212,300.02779166666664,22.941416666666665
Comp2,000-BJV-374,2.7831482638542417,2703,190,149.7651515151515,2764,1908.746212121212,300.03095833333333,22.92988888888889
Comp2,000-BCK-083,2.2915434475596457,3158,1745,33.277777777777779,2080,1906.6388888888889,299.97570833333333,22.633694444444444
Comp2,000-BJV-375,2.8626145609282911,2972,276,26.14,2012,1905.445,300.01162500000004,22.941722222222221
Comp2,000-BCK-064,2.2915434475596457,3158,1745,33.277777777777779,2080,1906.6388888888889,299.93941666666666,22.645944444444442
Comp2,000-BJV-376,2.3873017212833085,2741,414,65.4,2284,1908.7111111111112,300.027625,22.929722222222225
