<?xml version="1.0" encoding="UTF-8" standalone="no"?>
<svg
   height="20"
   viewBox="0 0 20 20"
   width="20"
   version="1.1"
   id="svg193"
   sodipodi:docname="org.free_astro.siril_small.svg"
   inkscape:version="1.1.2 (0a00cf5339, 2022-02-04)"
   xmlns:inkscape="http://www.inkscape.org/namespaces/inkscape"
   xmlns:sodipodi="http://sodipodi.sourceforge.net/DTD/sodipodi-0.dtd"
   xmlns:xlink="http://www.w3.org/1999/xlink"
   xmlns="http://www.w3.org/2000/svg"
   xmlns:svg="http://www.w3.org/2000/svg">
  <defs
     id="defs197" />
  <sodipodi:namedview
     id="namedview195"
     pagecolor="#505050"
     bordercolor="#ffffff"
     borderopacity="1"
     inkscape:pageshadow="0"
     inkscape:pageopacity="0"
     inkscape:pagecheckerboard="1"
     showgrid="false"
     inkscape:zoom="21.747201"
     inkscape:cx="7.2423113"
     inkscape:cy="12.070519"
     inkscape:window-width="1920"
     inkscape:window-height="1015"
     inkscape:window-x="0"
     inkscape:window-y="0"
     inkscape:window-maximized="1"
     inkscape:current-layer="svg193" />
  <linearGradient
     id="a"
     gradientTransform="matrix(0,-0.37367657,0.37988083,0,-78.788738,74.614954)"
     gradientUnits="userSpaceOnUse"
     x1="165.66393"
     x2="191.96703"
     y1="233.73611"
     y2="233.73611">
    <stop
       offset="0.0306"
       stop-color="#8765a9"
       id="stop2" />
    <stop
       offset="0.5153"
       stop-color="#485ba6"
       id="stop4" />
    <stop
       offset="1"
       stop-color="#003952"
       id="stop6" />
  </linearGradient>
  <clipPath
     id="b">
    <path
       d="m 4,82 h 18 v 18 H 4 Z m 0,0"
       id="path9" />
  </clipPath>
  <clipPath
     id="c">
    <path
       d="M 64,123 C 30.863281,123 4,96.136719 4,63 4,29.863281 30.863281,3 64,3 c 33.136719,0 60,26.863281 60,60 0,33.136719 -26.863281,60 -60,60 z m 0,0"
       id="path12" />
  </clipPath>
  <clipPath
     id="d">
    <path
       d="m 13,77 h 38 v 37 H 13 Z m 0,0"
       id="path15" />
  </clipPath>
  <clipPath
     id="e">
    <path
       d="M 64,123 C 30.863281,123 4,96.136719 4,63 4,29.863281 30.863281,3 64,3 c 33.136719,0 60,26.863281 60,60 0,33.136719 -26.863281,60 -60,60 z m 0,0"
       id="path18" />
  </clipPath>
  <clipPath
     id="f">
    <path
       d="M 40,78 H 60 V 98 H 40 Z m 0,0"
       id="path21" />
  </clipPath>
  <clipPath
     id="g">
    <path
       d="M 64,123 C 30.863281,123 4,96.136719 4,63 4,29.863281 30.863281,3 64,3 c 33.136719,0 60,26.863281 60,60 0,33.136719 -26.863281,60 -60,60 z m 0,0"
       id="path24" />
  </clipPath>
  <clipPath
     id="h">
    <path
       d="m 52,74 h 36 v 36 H 52 Z m 0,0"
       id="path27" />
  </clipPath>
  <clipPath
     id="i">
    <path
       d="M 64,123 C 30.863281,123 4,96.136719 4,63 4,29.863281 30.863281,3 64,3 c 33.136719,0 60,26.863281 60,60 0,33.136719 -26.863281,60 -60,60 z m 0,0"
       id="path30" />
  </clipPath>
  <clipPath
     id="j">
    <path
       d="m 100,78 h 24 v 24 h -24 z m 0,0"
       id="path33" />
  </clipPath>
  <clipPath
     id="k">
    <path
       d="M 64,123 C 30.863281,123 4,96.136719 4,63 4,29.863281 30.863281,3 64,3 c 33.136719,0 60,26.863281 60,60 0,33.136719 -26.863281,60 -60,60 z m 0,0"
       id="path36" />
  </clipPath>
  <clipPath
     id="l">
    <path
       d="m 77,78 h 34 v 34 H 77 Z m 0,0"
       id="path39" />
  </clipPath>
  <clipPath
     id="m">
    <path
       d="M 64,123 C 30.863281,123 4,96.136719 4,63 4,29.863281 30.863281,3 64,3 c 33.136719,0 60,26.863281 60,60 0,33.136719 -26.863281,60 -60,60 z m 0,0"
       id="path42" />
  </clipPath>
  <clipPath
     id="n">
    <path
       d="m 6,92 h 116 v 31 H 6 Z m 0,0"
       id="path45" />
  </clipPath>
  <clipPath
     id="o">
    <path
       d="M 64,123 C 30.863281,123 4,96.136719 4,63 4,29.863281 30.863281,3 64,3 c 33.136719,0 60,26.863281 60,60 0,33.136719 -26.863281,60 -60,60 z m 0,0"
       id="path48" />
  </clipPath>
  <clipPath
     id="p">
    <path
       d="m 30,94 h 36 v 29 H 30 Z m 0,0"
       id="path51" />
  </clipPath>
  <clipPath
     id="q">
    <path
       d="M 64,123 C 30.863281,123 4,96.136719 4,63 4,29.863281 30.863281,3 64,3 c 33.136719,0 60,26.863281 60,60 0,33.136719 -26.863281,60 -60,60 z m 0,0"
       id="path54" />
  </clipPath>
  <linearGradient
     id="r"
     gradientUnits="userSpaceOnUse">
    <stop
       offset="0"
       stop-color="#deddda"
       id="stop57" />
    <stop
       offset="1"
       stop-color="#ffffff"
       stop-opacity="0"
       id="stop59" />
  </linearGradient>
  <linearGradient
     id="s"
     gradientTransform="rotate(90,131.94629,190.05371)"
     x1="35.892578"
     x2="47.892578"
     xlink:href="#r"
     y1="274"
     y2="274" />
  <clipPath
     id="t">
    <path
       d="m 82,88 h 26 v 26 H 82 Z m 0,0"
       id="path63" />
  </clipPath>
  <clipPath
     id="u">
    <path
       d="M 64,123 C 30.863281,123 4,96.136719 4,63 4,29.863281 30.863281,3 64,3 c 33.136719,0 60,26.863281 60,60 0,33.136719 -26.863281,60 -60,60 z m 0,0"
       id="path66" />
  </clipPath>
  <linearGradient
     id="v"
     gradientTransform="matrix(0,0.722222,-0.722222,0,292.88889,62.077576)"
     x1="35.892578"
     x2="46.969505"
     xlink:href="#r"
     y1="274"
     y2="274" />
  <clipPath
     id="w">
    <path
       d="m 18,87 h 20 v 19 H 18 Z m 0,0"
       id="path70" />
  </clipPath>
  <clipPath
     id="x">
    <path
       d="M 64,123 C 30.863281,123 4,96.136719 4,63 4,29.863281 30.863281,3 64,3 c 33.136719,0 60,26.863281 60,60 0,33.136719 -26.863281,60 -60,60 z m 0,0"
       id="path73" />
  </clipPath>
  <linearGradient
     id="y"
     gradientTransform="matrix(0,0.527778,-0.527778,0,172.61111,68.056686)"
     x1="35.892578"
     x2="46.969505"
     xlink:href="#r"
     y1="274"
     y2="274" />
  <clipPath
     id="z">
    <path
       d="m 53,85 h 20 v 19 H 53 Z m 0,0"
       id="path77" />
  </clipPath>
  <clipPath
     id="A">
    <path
       d="M 64,123 C 30.863281,123 4,96.136719 4,63 4,29.863281 30.863281,3 64,3 c 33.136719,0 60,26.863281 60,60 0,33.136719 -26.863281,60 -60,60 z m 0,0"
       id="path80" />
  </clipPath>
  <linearGradient
     id="B"
     gradientTransform="matrix(0,0.527778,-0.527778,0,207.61111,66.056686)"
     x1="35.892578"
     x2="46.969505"
     xlink:href="#r"
     y1="274"
     y2="274" />
  <clipPath
     id="C">
    <path
       d="m 66,103 h 26 v 20 H 66 Z m 0,0"
       id="path84" />
  </clipPath>
  <clipPath
     id="D">
    <path
       d="M 64,123 C 30.863281,123 4,96.136719 4,63 4,29.863281 30.863281,3 64,3 c 33.136719,0 60,26.863281 60,60 0,33.136719 -26.863281,60 -60,60 z m 0,0"
       id="path87" />
  </clipPath>
  <linearGradient
     id="E"
     gradientTransform="matrix(0,0.722222,-0.722222,0,276.88889,77.077576)"
     x1="35.892578"
     x2="46.969505"
     xlink:href="#r"
     y1="274"
     y2="274" />
  <path
     d="m 10.003106,0.33091505 c 5.522381,0 9.999267,4.40376745 9.999267,9.83596295 0,5.43219 -4.476886,9.835956 -9.999267,9.835956 -5.5223891,0 -9.99927355,-4.403766 -9.99927355,-9.835956 0,-5.4321948 4.47688475,-9.83596295 9.99927355,-9.83596295 z m 0,0"
     fill="#deddda"
     id="path91"
     style="stroke-width:0.165287" />
  <path
     d="m 0.03508012,9.3881933 c -0.0208318,0.259347 -0.03124811,0.518694 -0.03124811,0.7786847 0,1.156493 0.20766717,2.30338 0.61258528,3.389433 V 13.229085 L 19.48939,12.949246 l 0.01107,0.293287 c 0.332659,-0.992558 0.501916,-2.030587 0.501916,-3.075655 0,-0.2599897 -0.01042,-0.5193367 -0.03125,-0.7786846 z m 0,0"
     fill="#543d6c"
     id="path93"
     style="stroke-width:0.165287" />
  <path
     d="m 10.003106,0.65878025 c 5.15457,0 9.33265,4.10984205 9.33265,9.18022905 v 0.3278687 c 0,5.070383 -4.17808,9.180227 -9.33265,9.180227 -5.1545769,0 -9.33265571,-4.109844 -9.33265571,-9.180227 V 9.8390094 c 0,-5.0703871 4.17807851,-9.18022915 9.33265571,-9.18022915 z m 0,0"
     fill="#d5d3cf"
     id="path95"
     style="stroke-width:0.165287" />
  <path
     d="M 0.64310857,13.300164 C -0.90690876,9.2434732 0.4243747,4.6668053 3.9215135,2.031076 7.4186525,-0.60465335 12.257498,-0.67829495 15.836011,1.8498525 c 3.578516,2.5281499 5.053015,7.0619128 3.631245,11.1640725"
     fill="url(#a)"
     id="path97"
     style="fill:url(#a);stroke-width:0.165287" />
  <path
     d="m 15.587332,4.0085132 -0.835877,0.1760994 -0.179674,0.8228651 c -0.0078,0.034579 -0.03841,0.058911 -0.07486,0.058911 -0.0358,0 -0.0664,-0.024333 -0.07421,-0.058911 L 14.243036,4.1846126 13.40716,4.0085132 c -0.03515,-0.00772 -0.05989,-0.038419 -0.05989,-0.073639 0,-0.03522 0.02474,-0.065317 0.05989,-0.072998 l 0.835876,-0.1767404 0.179675,-0.8222238 c 0.0078,-0.034579 0.0384,-0.059553 0.07421,-0.059553 0.03646,0 0.06705,0.024974 0.07486,0.059553 l 0.179674,0.8222237 0.835877,0.1767401 c 0.03515,0.00772 0.06054,0.037777 0.06054,0.072998 0,0.03522 -0.02539,0.065959 -0.06054,0.073639 z m 0,0"
     fill="#ffffff"
     id="path99"
     style="stroke-width:0.165287" />
  <g
     clip-path="url(#b)"
     id="g105"
     transform="matrix(0.16665445,0,0,0.16393263,-0.66278522,-0.48874795)">
    <g
       clip-path="url(#c)"
       id="g103">
      <path
         d="m 22,91 c 0,4.96875 -4.03125,9 -9,9 -4.96875,0 -9,-4.03125 -9,-9 0,-4.96875 4.03125,-9 9,-9 4.96875,0 9,4.03125 9,9 z m 0,0"
         fill="#ffffff"
         id="path101" />
    </g>
  </g>
  <g
     clip-path="url(#d)"
     id="g111"
     transform="matrix(0.16665445,0,0,0.16393263,-0.66278522,-0.48874795)">
    <g
       clip-path="url(#e)"
       id="g109">
      <path
         d="M 50.5,95.5 C 50.5,105.71875 42.21875,114 32,114 21.78125,114 13.5,105.71875 13.5,95.5 13.5,85.28125 21.78125,77 32,77 c 10.21875,0 18.5,8.28125 18.5,18.5 z m 0,0"
         fill="#ffffff"
         id="path107" />
    </g>
  </g>
  <g
     clip-path="url(#f)"
     id="g117"
     transform="matrix(0.16665445,0,0,0.16393263,-0.66278522,-0.48874795)">
    <g
       clip-path="url(#g)"
       id="g115">
      <path
         d="m 60,88 c 0,5.523438 -4.476562,10 -10,10 -5.523438,0 -10,-4.476562 -10,-10 0,-5.523438 4.476562,-10 10,-10 5.523438,0 10,4.476562 10,10 z m 0,0"
         fill="#ffffff"
         id="path113" />
    </g>
  </g>
  <g
     clip-path="url(#h)"
     id="g123"
     transform="matrix(0.16665445,0,0,0.16393263,-0.66278522,-0.48874795)">
    <g
       clip-path="url(#i)"
       id="g121">
      <path
         d="m 88,92 c 0,9.94141 -8.058594,18 -18,18 -9.941406,0 -18,-8.05859 -18,-18 0,-9.941406 8.058594,-18 18,-18 9.941406,0 18,8.058594 18,18 z m 0,0"
         fill="#ffffff"
         id="path119" />
    </g>
  </g>
  <g
     clip-path="url(#j)"
     id="g129"
     transform="matrix(0.16665445,0,0,0.16393263,-0.66278522,-0.48874795)">
    <g
       clip-path="url(#k)"
       id="g127">
      <path
         d="m 124,90 c 0,6.628906 -5.37109,12 -12,12 -6.62891,0 -12,-5.371094 -12,-12 0,-6.628906 5.37109,-12 12,-12 6.62891,0 12,5.371094 12,12 z m 0,0"
         fill="#ffffff"
         id="path125" />
    </g>
  </g>
  <g
     clip-path="url(#l)"
     id="g135"
     transform="matrix(0.16665445,0,0,0.16393263,-0.66278522,-0.48874795)">
    <g
       clip-path="url(#m)"
       id="g133">
      <path
         d="m 111,95 c 0,9.39063 -7.60937,17 -17,17 -9.390625,0 -17,-7.60937 -17,-17 0,-9.390625 7.609375,-17 17,-17 9.39063,0 17,7.609375 17,17 z m 0,0"
         fill="#ffffff"
         id="path131" />
    </g>
  </g>
  <g
     clip-path="url(#n)"
     id="g141"
     transform="matrix(0.16665445,0,0,0.16393263,-0.66278522,-0.48874795)">
    <g
       clip-path="url(#o)"
       id="g139">
      <path
         d="M 6.457031,92 C 13.992188,117.5 37.410156,135 64,135 c 26.589844,0 50.00781,-17.5 57.54297,-43 z m 0,0"
         fill="#ffffff"
         id="path137" />
    </g>
  </g>
  <g
     clip-path="url(#p)"
     id="g147"
     transform="matrix(0.16665445,0,0,0.16393263,-0.66278522,-0.48874795)">
    <g
       clip-path="url(#q)"
       id="g145">
      <path
         d="m 48,130 c -9.941406,0 -18,-8.05859 -18,-18 0,-9.94141 8.058594,-18 18,-18 9.941406,0 18,8.05859 18,18 0,9.94141 -8.058594,18 -18,18 z m 0,0"
         fill="url(#s)"
         id="path143"
         style="fill:url(#s)" />
    </g>
  </g>
  <g
     clip-path="url(#t)"
     id="g153"
     transform="matrix(0.16665445,0,0,0.16393263,-0.66278522,-0.48874795)">
    <g
       clip-path="url(#u)"
       id="g151">
      <path
         d="m 95,114 c -7.179688,0 -13,-5.82031 -13,-13 0,-7.179688 5.820312,-13 13,-13 7.17969,0 13,5.820312 13,13 0,7.17969 -5.82031,13 -13,13 z m 0,0"
         fill="url(#v)"
         id="path149"
         style="fill:url(#v)" />
    </g>
  </g>
  <g
     clip-path="url(#w)"
     id="g159"
     transform="matrix(0.16665445,0,0,0.16393263,-0.66278522,-0.48874795)">
    <g
       clip-path="url(#x)"
       id="g157">
      <path
         d="m 28,106 c -5.246094,0 -9.5,-4.25391 -9.5,-9.5 0,-5.246094 4.253906,-9.5 9.5,-9.5 5.246094,0 9.5,4.253906 9.5,9.5 0,5.24609 -4.253906,9.5 -9.5,9.5 z m 0,0"
         fill="url(#y)"
         id="path155"
         style="fill:url(#y)" />
    </g>
  </g>
  <g
     clip-path="url(#z)"
     id="g165"
     transform="matrix(0.16665445,0,0,0.16393263,-0.66278522,-0.48874795)">
    <g
       clip-path="url(#A)"
       id="g163">
      <path
         d="m 63,104 c -5.246094,0 -9.5,-4.253906 -9.5,-9.5 0,-5.246094 4.253906,-9.5 9.5,-9.5 5.246094,0 9.5,4.253906 9.5,9.5 0,5.246094 -4.253906,9.5 -9.5,9.5 z m 0,0"
         fill="url(#B)"
         id="path161"
         style="fill:url(#B)" />
    </g>
  </g>
  <g
     clip-path="url(#C)"
     id="g171"
     transform="matrix(0.16665445,0,0,0.16393263,-0.66278522,-0.48874795)">
    <g
       clip-path="url(#D)"
       id="g169">
      <path
         d="m 79,129 c -7.179688,0 -13,-5.82031 -13,-13 0,-7.17969 5.820312,-13 13,-13 7.179688,0 13,5.82031 13,13 0,7.17969 -5.820312,13 -13,13 z m 0,0"
         fill="url(#E)"
         id="path167"
         style="fill:url(#E)" />
    </g>
  </g>
  <path
     d="m 5.7547132,9.4182912 -0.8358761,0.1761 -0.179675,0.8228668 c -0.00781,0.03459 -0.038408,0.05891 -0.074864,0.05891 -0.035805,0 -0.066402,-0.02431 -0.074213,-0.05891 L 4.4104102,9.5943912 3.5745351,9.4182912 c -0.035154,-0.0077 -0.059891,-0.03841 -0.059891,-0.07364 0,-0.03521 0.024736,-0.06532 0.059891,-0.073 L 4.4104106,9.0949073 4.590085,8.2726864 c 0.00781,-0.03459 0.038408,-0.05955 0.074213,-0.05955 0.036455,0 0.067052,0.02498 0.074864,0.05955 l 0.1796749,0.822221 0.8358761,0.176744 c 0.035154,0.0077 0.060542,0.03779 0.060542,0.073 0,0.03521 -0.025387,0.06595 -0.060542,0.07364 z m 0,0"
     fill="#ffffff"
     id="path173"
     style="stroke-width:0.165287" />
  <path
     d="m 3.3017676,6.6845851 -0.4185889,0.08837 -0.089837,0.411113 c -0.00325,0.01729 -0.018878,0.02946 -0.037107,0.02946 -0.017577,0 -0.033201,-0.01217 -0.037107,-0.02946 l -0.089836,-0.411114 -0.4179385,-0.08837 c -0.017576,-0.0038 -0.029946,-0.01921 -0.029946,-0.0365 0,-0.01793 0.012369,-0.0333 0.029946,-0.0365 l 0.4179381,-0.08837 0.089837,-0.411112 c 0.0039,-0.01728 0.01953,-0.0301 0.037107,-0.0301 0.018228,0 0.033851,0.01281 0.037107,0.0301 l 0.089837,0.411112 0.4185885,0.08837 c 0.017577,0.0032 0.029947,0.01857 0.029947,0.0365 0,0.01729 -0.01237,0.03266 -0.029947,0.036501 z m 0,0"
     fill="#ffffff"
     id="path175"
     style="stroke-width:0.165287" />
  <path
     d="m 10.134606,8.4878463 -0.4185937,0.08837 -0.089838,0.4111101 c -0.00326,0.01729 -0.018876,0.02948 -0.037109,0.02948 -0.017581,0 -0.033205,-0.01218 -0.037109,-0.02948 L 9.462124,8.5762154 9.0441858,8.4878463 c -0.017572,-0.0038 -0.029945,-0.01921 -0.029945,-0.0365 0,-0.01792 0.012373,-0.0333 0.029945,-0.0365 l 0.4179382,-0.08838 0.089838,-0.411116 c 0.00388,-0.01729 0.019528,-0.0301 0.037109,-0.0301 0.018224,0 0.033849,0.01281 0.037109,0.0301 l 0.089838,0.4111161 0.418594,0.08837 c 0.01757,0.0034 0.02994,0.01859 0.02994,0.0365 0,0.01729 -0.01237,0.03268 -0.02994,0.0365 z m 0,0"
     fill="#ffffff"
     id="path177"
     style="stroke-width:0.165287" />
  <path
     d="m 18.300675,9.9632394 -0.41859,0.08837 -0.08984,0.411115 c -0.0033,0.01729 -0.01888,0.02948 -0.03711,0.02948 -0.01757,0 -0.03321,-0.01218 -0.03711,-0.02948 l -0.08984,-0.411115 -0.417939,-0.08837 c -0.01758,-0.0038 -0.02995,-0.01921 -0.02995,-0.0365 0,-0.01792 0.01236,-0.0333 0.02995,-0.0365 l 0.417939,-0.08837 0.08984,-0.411114 c 0.0039,-0.01729 0.01953,-0.0301 0.03711,-0.0301 0.01822,0 0.03385,0.0128 0.03711,0.0301 l 0.08984,0.411114 0.41859,0.08837 c 0.01757,0.0034 0.02994,0.01858 0.02994,0.0365 0,0.01729 -0.01236,0.03268 -0.02994,0.0365 z m 0,0"
     fill="#ffffff"
     id="path179"
     style="stroke-width:0.165287" />
  <g
     fill="none"
     stroke="#ffffff"
     id="g191"
     transform="matrix(0.16665445,0,0,0.16393263,-0.66278522,-0.48874795)">
    <path
       d="m 49.40047,206.32097 c -3.501864,-0.88888 -5.008479,-4.88546 -4.071934,-8.14243 1.465896,-5.08224 7.315908,-7.21284 12.073284,-5.71328 7.078379,2.23917 10.003385,10.46982 7.736675,17.1534 -3.237188,9.56736 -14.44858,13.45538 -23.528992,10.20519 -3.189682,-1.13994 -6.073969,-3.0602 -8.401758,-5.5165"
       stroke-width="2.60581"
       transform="matrix(0.575586,0,0,0.575688,21.120447,-86.299873)"
       id="path181" />
    <path
       d="m -54.836502,-197.62892 c -3.508649,-0.88889 -5.015265,-4.88546 -4.071934,-8.14244 1.45911,-5.07545 7.309122,-7.21284 12.073285,-5.70649 7.078378,2.23239 9.996598,10.46303 7.736674,17.14661 -3.237187,9.56737 -14.448579,13.45538 -23.535778,10.20519 -3.182895,-1.13994 -6.067182,-3.0602 -8.394971,-5.50971"
       stroke-width="2.60581"
       transform="matrix(-0.575586,0,0,-0.575688,21.120447,-85.299873)"
       id="path183" />
    <path
       d="m 94.499878,223.50066 c -2.31e-4,3.59118 -2.90955,6.4979 -6.500726,6.49767 -3.590165,0.004 -6.497894,-2.90955 -6.501437,-6.49972 0.0012,-3.5874 2.913323,-6.4989 6.500725,-6.49766 3.591176,2.3e-4 6.501668,2.90854 6.501438,6.49971 z m 0,0"
       stroke-linecap="round"
       stroke-linejoin="round"
       stroke-width="1.5"
       transform="rotate(14.999995,742.23495,148.09628)"
       id="path185" />
    <path
       d="m 94.50228,229.50139 c -0.0012,3.5874 -2.913323,6.4989 -6.500726,6.49766 -3.591176,-2.3e-4 -6.501667,-2.90854 -6.501437,-6.49971 2.31e-4,-3.59118 2.909549,-6.4979 6.500725,-6.49767 3.590165,-0.004 6.497895,2.90955 6.501438,6.49972 z m 0,0"
       stroke-linecap="round"
       stroke-linejoin="round"
       stroke-width="1.5"
       transform="rotate(14.999995,742.23495,148.09628)"
       id="path187" />
    <path
       d="m 89.499925,226.49846 c -2.65e-4,0.8291 -0.673056,1.50274 -1.498384,1.50147 -0.829101,-2.7e-4 -1.502748,-0.67306 -1.501472,-1.49839 2.66e-4,-0.8291 0.673057,-1.50274 1.498385,-1.50147 0.829101,2.7e-4 1.502748,0.67306 1.501471,1.49839 z m 0,0"
       stroke-linecap="round"
       stroke-linejoin="round"
       stroke-width="1.5"
       transform="rotate(14.999995,742.23495,148.09628)"
       id="path189" />
  </g>
</svg>
